{
    "lang": 1,
    "genericErrMsg": {
        "500": {
            "1": "Internal server error."
        },
        "501": {
            "1": "Implement  error."
        },
        "404": {
            "1": "Not-found"
        },
        "200": {
            "1": "Got The Details."
        }
    },
    "getConfig": {
        "200": {
            "1": "Got The Details."
        },
        "404": {
            "1": "Not found"
        }
    },
    "postReferralCode": {
        "401": {
            "1": "Invalid referral code"
        },
        "402": {
            "1": "Currently we are non-operational in your city , Please write us to support@livem.today, we shall inform when we are here!"
        },
        "200": {
            "1": "Referral code is valid"
        }
    },
    "postReferralCodeValidation": {
        "401": {
            "1": "Invalid referral code"
        },
        "402": {
            "1": "Currently we are non-operational in your city , Please write us to support@livem.today, we shall inform when we are here!"
        },
        "200": {
            "1": "Referral code is valid"
        }
    },
    "postAddress": {
        "200": {
            "1": "Address Added Successfully."
        }
    },
    "getAddress": {
        "200": {
            "1": "Got the details."
        }
    },
    "deleteAddress": {
        "200": {
            "1": "Address Deleted Successfully."
        }
    },
    "patchAddress": {
        "200": {
            "1": "Address Updated Successfully."
        }
    },
    "getCancelReason": {
        "200": {
            "1": "Got The  Details."
        }
    },
    "getAccessToken": {
        "200": {
            "1": "Got The  Details."
        },
        "404": {
            "1": "Data not found."
        }
    },
    "responseBooking": {
        "200": {
            "1": "Booking Updated Successfully"
        },
        "404": {
            "1": "Booking update failed"
        }
    },
    "timerBooking": {
        "200": {
            "1": "Timer has been updated"
        },
        "400": {
            "1": "The timer has start/stop"
        },
        "404": {
            "1": "Booking update failed"
        }
    },
    "statusBooking": {
        "200": {
            "1": "Booking Update Successfully"
        },
        "404": {
            "1": "Booking update failed"
        },
        "400": {
            "1": "Booking status is not updating"
        }
    },
    "getBooking": {
        "200": {
            "1": "Booking details received successfully"
        }
    },
    "ackBooking": {
        "200": {
            "1": "Booking details Updated Successfully"
        },
        "404": {
            "1": "Booking details update failed"
        }
    },
    "pacthCancelBooking": {
        "200": {
            "1": "Booking Cancelled Successfully"
        },
        "404": {
            "1": "Booking cancellation update failed"
        }
    },
    "getBookingHistory": {
        "200": {
            "1": "History details received ."
        }
    },
    "getBookingById": {
        "200": {
            "1": "Booking details received ."
        }
    },
    "getCity": {
        "200": {
            "1": "City details received."
        }
    },
    "getServiceCategory": {
        "200": {
            "1": "Service category details received."
        },
        "404": {
            "1": "Categories Are unavailable"
        }
    },
    "postPhoneValidation": {
        "200": {
            "1": "Phone number address updated successfully."
        },
        "412": {
            "1": "This Phone number is already registered with us"
        },
        "406": {
            "1": "Invalid Phone Number"
        },
        "400": {
            "1": "Bad Request"
        }
    },
    "postEmailValidation": {
        "200": {
            "1": "Email address updated successfully."
        },
        "412": {
            "1": "This Email address is already registered with us"
        }
    },
    "getProfile": {
        "200": {
            "1": "Profile details received successfully"
        },
        "404": {
            "1": "Profile details update failed"
        }
    },
    "patchProfile": {
        "200": {
            "1": "Profile details updated successfully."
        },
        "404": {
            "1": "Profile Details update failed"
        },
        "400": {
            "1": "Please update all the required details."
        }
    },
    "patchEmail": {
        "200": {
            "1": "Email address updated successfully."
        },
        "412": {
            "1": "This Email address is already registered with us"
        }
    },
    "patchLocation": {
        "200": {
            "1": "Location Updated Successfully."
        }
    },
    "patchStatus": {
        "200": {
            "1": " Status Updated Successfully."
        },
        "421": {
            "1": "You have deactivated your profile , Please activate it to go online.."
        }
    },
    "patchPassword": {
        "200": {
            "1": "Password Updated Successfully."
        },
        "404": {
            "1": "Password update failed."
        },
        "401": {
            "1": "Incorrect Password."
        }
    },
    "patchLogOut": {
        "200": {
            "1": "Successfully Logged Out."
        }
    },
    "patchPhoneNumber": {
        "200": {
            "1": "Phone Number updated successfully."
        },
        "412": {
            "1": "This Phone number is already registered with us"
        }
    },
    "postSignIn": {
        "200": {
            "1": "Login Successful."
        },
        "400": {
            "1": "The entered user is not registered with us"
        },
        "401": {
            "1": "Incorrect Password."
        },
        "409": {
            "1": "Your Profile is still under review. Please contact LiveM Support for more details ."
        },
        "410": {
            "1": "Your profile has been rejected by our admin, please contact our support team for further queries."
        },
        "411": {
            "1": "Your profile has been banned by our admin, please contact our support team for further queries."
        }
    },
    "VerifyPhoneNumber": {
        "200": {
            "1": "One of our member staff will contact you within next 24 hours to setup your profile. The LiveM Team"
        },
        "410": {
            "1": "The OTP has been expired, please request for it again and  verify your number before it expires"
        },
        "404": {
            "1": "Verification failed"
        },
        "413": {
            "1": "This Phone number is already verified"
        },
        "400": {
            "1": "Incorrect Verification code."
        },
        "429": {
            "1": "You have exceeded your limit for OTP ,please generate one after 24 hours.Thank you."
        }
    },
    "postSignUp": {
        "200": {
            "1": "Please verify Your Phone Number.  "
        },
        "412": {
            "1": "This Email address is already registered with us"
        },
        "413": {
            "1": "This Phone number is already registered with us"
        },
        "504": {
            "1": "Error while creating a wallet"
        }
    },
    "postStripe": {
        "404": {
            "1": " Unable to Update stripe Details"
        },
        "200": {
            "1": "Added Successfully.."
        }
    },
    "postStripeBank": {
        "404": {
            "1": "not-found"
        },
        "200": {
            "1": "Added Successfully.."
        }
    },
    "getStripe": {
        "404": {
            "1": "User Not Found"
        },
        "200": {
            "1": "Added Successfully."
        },
        "401": {
            "1": "No stripe account, please create a new stripe account."
        }
    },
    "postStripeDefault": {
        "400": {
            "1": "Please make another account default & then delete this account."
        },
        "404": {
            "1": "No such account"
        },
        "200": {
            "1": " Bank defualt."
        }
    },
    "deleteStripe": {
        "400": {
            "1": "Cannot delete default account. Please make another account default & then delete this account."
        },
        "404": {
            "1": "No such account"
        },
        "200": {
            "1": "Delete Bank details."
        }
    },
    "getReviewAndRating": {
        "200": {
            "1": "Got The  Details."
        },
        "404": {
            "1": "Review not found."
        }
    },
    "postReviewAndRating": {
        "200": {
            "1": "Got The  Details."
        },
        "404": {
            "1": "Data not found."
        }
    },
    "postSchedule": {
        "401": {
            "1": "You have already created schedule for the selected time period."
        },
        "200": {
            "1": " Added Successfully.."
        }
    },
    "getSchedule": {
        "404": {
            "1": "Schedule not-found"
        },
        "200": {
            "1": " Got the Schedule Successfully.."
        }
    },
    "deleteSchedule": {
        "200": {
            "1": " Delete Schedule Successfully.."
        },
        "410": {
            "1": "can't delete this schedule"
        }
    },
    "getMonthSchedule": {
        "404": {
            "1": "Schedule not-found"
        },
        "200": {
            "1": " Got the Schedule Successfully.."
        }
    },
    "postVerifyPhoneNumber": {
        "200": {
            "1": "Phone Number has been verified."
        },
        "410": {
            "1": "The OTP has been expired, please request for it again and  verify your number before it expires"
        },
        "404": {
            "1": "Verification failed"
        },
        "413": {
            "1": "This Phone number is already verified"
        },
        "400": {
            "1": "Incorrect Verification code."
        },
        "429": {
            "1": "You have exceeded  your limit for  OTP ,please generate one after 24 hours.Thank you."
        }
    },
    "postForgotPassword": {
        "430": {
            "1": "Your Profile is still under review. Please contact LiveM Support for more details."
        },
        "200": {
            "1": "Verification Code has been sent to your registered Mobile Number / Email"
        },
        "400": {
            "1": "Bad Request"
        },
        "404": {
            "1": "Not found"
        },
        "406": {
            "1": "Invalid Phone Number"
        },
        "409": {
            "1": "Invalid Email Address"
        },
        "429": {
            "1": "You have exceeded your limit for forgot password,please have it  updated after 24 hours."
        }
    },
    "postVerifyVerificationCode": {
        "200": {
            "1": "Verification sucess"
        },
        "400": {
            "1": "Bad Request"
        },
        "401": {
            "1": "phone number already verified"
        },
        "402": {
            "1": "Incorrect Phone Number"
        },
        "403": {
            "1": "Incorrect Verification code."
        },
        "410": {
            "1": "The OTP has been expired, please request for it again and  verify your number before it expires"
        },
        "429": {
            "1": "You have exceeded  your limit for  OTP ,please generate one after 24 hours.Thank you."
        }
    },
    "postResendOtp": {
        "200": {
            "1": "Verification code sent."
        },
        "404": {
            "1": "Data not found."
        },
        "429": {
            "1": "You have exceeded your limit for forgot password,please have it  updated after 24 hours."
        }
    },
    "apiDescription": {
        "getAccessToken": "In order to get the access token based on the refresh token this API is required",
        "getConfig": "This API allows the user to recieve configuration details",
        "getCancellationReasons": "This api to list all cancellation reasons",
        "getReferralCode": "This API ensures that a referal code is used only once by one user",
        "getAddress": "get address",
        "postAddress": "This API allows you to add the address the user and save the address, it picks up the location from the google maps set by the user .",
        "deleteAddress": "This API is  for the user to delete an address saved by him.",
        "patchAddress": "'This API allows you to edit the address the user and save the address, it picks up the location from the google maps set by the user ",
        "getBooking": "This Api is used to get all request or upcoming job.",
        "getBookingById": "This Api is used to get perticuler booking details.",
        "patchBookingAck": "this is used to modify the status of the booking based on the status either set by the provider or set by the dispatch or set by the admin.",
        "patchBookingResponse": "This API is used by the provider app to either accept or deny a booking.",
        "patchBookingStatus": "this is used to modify the status of the booking based on the status either set by the provider or set by the dispatch or set by the admin.",
        "patchBookingTimer": "This Api is used Start Timer or Stop Timer,After booking start.",
        "patchCancelBooking": "This Api is used Start Timer or Stop Timer,After booking start",
        "getBookingHistory": "This Api is used to get all requests, upcoming and past Booking.",
        "getCity": "This API used to fetch the different active city and select the city at the time of  sign up",
        "getServiceCategory": "This API is used to fetch the different active categories available in that city , this API will also return the necessary documents.",
        "postPhoneValidation": "This API is to validate the phone number at the time of sign up, if this particular phone number is already registered or not",
        "postEmailValidation": "This API is to validate the email at the time of sign up, if the particular email ID is already registered or not",
        "getProfile": "This API is to get the information of the uer on his Profile Page",
        "patchProfile": "This API enables the user to edit his details on the profile Page.",
        "patchEmail": "This API enables the user to change his email addresss",
        "patchLocation": "update provider location",
        "patchStatus": "update provider status",
        "patchPasswordMe": "api to change password by user.",
        "patchPassword": "This Api to change password",
        "patchPhoneNumber": "This API enables the user to change his phne number.It is accepted once the phone number is verified with a verification code.",
        "postSignUp": "This API allows the User to sign up using his phone number and email ID",
        "postVerifyPhoneNumber": "This API verify the phone number after signup. ",
        "postSignIn": "This API allows user to sign in to the application.",
        "postLogout": "This API allows the user to log out from the app from his Profile Page",
        "postStripe": "Create or update the stripe account for provider",
        "postStripeBank": "Add bank account to provider's stripe account",
        "getStripe": "Get stripe account details of a provider",
        "postStripeDefault": "Make a bank account default in provider's stripe account",
        "deleteStripe": "Delete bank account from provider's stripe account",
        "postForgotPassword": "This API allows the user to reset the password. The user may mention his email ID or Phone Number in order to verify the account. In case of an email ID a link is sent to the email ID, in case of a mobile number a verification code is sent.",
        "postVerifyVerificationCode": "This API is used to verify the Verification code which the user receives from Twilio",
        "postResendOtp": "This API to send otp while user forgot password",
        "getSupport": "This api to list all FAQ text",
        "getSchedule": "This API is to fetch all create schedule",
        "postSchedule": "This API is to add schedule.",
        "deleteSchedule": "This api is used to delete schedule.",
        "getByMonth": "This API is to fetch all create schedule by month wise",
        "getReviewAndRating": "This API is get all the review and rating.",
        "postReviewAndRating": "This API is  for the user to add review and rating perticuler booking.",
        "getCustomerReviewAndRating": "This API is get all the review and rating."
    },
    "bookingStatus": {
        "1": "Booking Requested",
        "2": "Request Received",
        "3": "Request Accepted by Artist.",
        "4": "Artist Declined the Request",
        "5": "Artist didn't respond to this booking.",
        "6": "Artist is on the way to the location",
        "7": "Artist has arrived at the location",
        "8": "Event has been Started",
        "9": "Event has been Completed",
        "10": "Invoice Raised",
        "11": "Cancelled by artist",
        "12": "Cancelled by Music Lover",
        "14": "Event has been stoped"
    },
    "notifyTitle": {
        "responseBooking": "response new booking",
        "cancelBooking": "cancel booking by  customer"
    },
    "notifyMsg": {
        "responseBooking": "response booking",
        "cancelBooking": "cancel booking by  customer"
    }
}