{
    "headerlogo": "https://s3.amazonaws.com/livemapplication/invoice/1q.png",
    "footerlogo": "https://s3.amazonaws.com/livemapplication/invoice/ww.png",
    "backGroung": "https://s3.amazonaws.com/livemapplication/invoice/background.png",
    "facebook": "https://s3.amazonaws.com/livemapplication/invoice/fb.png",
    "twitter": "https://s3.amazonaws.com/livemapplication/invoice/tw.png",
    "linkedin": "https://s3.amazonaws.com/livemapplication/invoice/in.png",
    "youtube": "https://s3.amazonaws.com/livemapplication/invoice/yo.png",
    "profile": "https://s3.amazonaws.com/livemapplication/invoice/profile.png",
    "cash": "https://s3.amazonaws.com/livemapplication/invoice/cash.png",
    "provideinvoicelogo": "https://s3.amazonaws.com/livemapplication/invoice/total.png",
    "insta": "https://s3.amazonaws.com/livemapplication/invoice/insta.png",
    "AppName": "LiveM",
    "TRIGGER": {
        "signUpForProvider": "New Signup Provide",
        "welcomeProvider": "welcome Provider",
        "signUpForCustomer": "New signup for customer",
        "forgotPasswordForProvider": "Forgot Password For Provider",
        "forgotPasswordForCustomer": "Forgot Password For Customer",
        "newBookingRecevied": "New booking",
        "cancelBookingByCustomer": "Cancel Booking By Customer",
        "acceptBookingByProvider": "Confirm Booking By Provider",
        "expiredBookingForCustomer": "Expired Booking For Customer",
        "rejectBookingForCustomer": "Reject Booking For Customer",
        "deActiveByAdmiForCustomer": "De-Active By Admin",
        "invoiceForCustomer": "Invoice For Customer",
        "passwordUpdatedForCustomer": "Password changed by customer"
    },
    "SUBJECT": {
        "signUpForProvider": "Welcome to LiveM",
        "welcomeProvider": "Welcome to LiveM",
        "signUpForCustomer": "Welcome to LiveM",
        "forgotPasswordForProvider": "Reset your password on LiveM",
        "forgotPasswordForCustomer": "Reset your password on LiveM",
        "newBookingRecevied": "New Booking on LiveM",
        "cancelBookingByCustomer": "Cancel Booking By Customer",
        "bookingAccept": "'Appointment Accepted on LiveM",
        "acceptBookingByProvider": " Booking confirmed on LiveM",
        "rejectBookingForCustomer": " Booking denied by selected provider on LiveM",
        "passwordUpdatedForCustomer": "Your password has been updated successfully on LiveM"
    }
}